<svg width="19" height="19" viewBox="0 0 19 19" fill="none" xmlns="http://www.w3.org/2000/svg">
<path d="M9.49997 5.6943C7.39401 5.6943 5.6944 7.39391 5.6944 9.49987C5.6944 11.6058 7.39401 13.3054 9.49997 13.3054C11.6059 13.3054 13.3055 11.6058 13.3055 9.49987C13.3055 7.39391 11.6059 5.6943 9.49997 5.6943ZM9.49997 11.9732C8.13805 11.9732 7.02663 10.8618 7.02663 9.49987C7.02663 8.13795 8.13805 7.02653 9.49997 7.02653C10.8619 7.02653 11.9733 8.13795 11.9733 9.49987C11.9733 10.8618 10.8619 11.9732 9.49997 11.9732ZM13.4614 4.65153C12.9697 4.65153 12.5726 5.0486 12.5726 5.5403C12.5726 6.032 12.9697 6.42907 13.4614 6.42907C13.9531 6.42907 14.3502 6.03385 14.3502 5.5403C14.3503 5.42354 14.3274 5.3079 14.2828 5.20001C14.2382 5.09211 14.1727 4.99407 14.0902 4.91152C14.0076 4.82896 13.9096 4.7635 13.8017 4.71888C13.6938 4.67427 13.5781 4.65138 13.4614 4.65153ZM16.9181 9.49987C16.9181 8.47565 16.9274 7.46071 16.8699 6.43834C16.8124 5.25084 16.5415 4.19694 15.6731 3.32858C14.8029 2.45836 13.7508 2.18932 12.5633 2.1318C11.5391 2.07428 10.5242 2.08356 9.50182 2.08356C8.4776 2.08356 7.46266 2.07428 6.4403 2.1318C5.2528 2.18932 4.19889 2.46022 3.33053 3.32858C2.46032 4.19879 2.19127 5.25084 2.13375 6.43834C2.07624 7.46256 2.08551 8.4775 2.08551 9.49987C2.08551 10.5222 2.07624 11.539 2.13375 12.5614C2.19127 13.7489 2.46217 14.8028 3.33053 15.6712C4.20075 16.5414 5.2528 16.8104 6.4403 16.8679C7.46452 16.9255 8.47946 16.9162 9.50182 16.9162C10.526 16.9162 11.541 16.9255 12.5633 16.8679C13.7508 16.8104 14.8048 16.5395 15.6731 15.6712C16.5433 14.8009 16.8124 13.7489 16.8699 12.5614C16.9293 11.539 16.9181 10.5241 16.9181 9.49987ZM15.2853 13.8751C15.1499 14.2128 14.9866 14.4651 14.725 14.7249C14.4633 14.9865 14.2129 15.1498 13.8752 15.2852C12.8992 15.673 10.5817 15.5858 9.49997 15.5858C8.41823 15.5858 6.09889 15.673 5.12292 15.2871C4.78522 15.1516 4.53288 14.9883 4.27311 14.7267C4.01149 14.4651 3.84821 14.2146 3.71276 13.8769C3.32682 12.8991 3.41403 10.5816 3.41403 9.49987C3.41403 8.41813 3.32682 6.09879 3.71276 5.12282C3.84821 4.78512 4.01149 4.53278 4.27311 4.27301C4.53473 4.01325 4.78522 3.84811 5.12292 3.71266C6.09889 3.32672 8.41823 3.41393 9.49997 3.41393C10.5817 3.41393 12.901 3.32672 13.877 3.71266C14.2147 3.84811 14.4671 4.01139 14.7268 4.27301C14.9884 4.53463 15.1517 4.78512 15.2872 5.12282C15.6731 6.09879 15.5859 8.41813 15.5859 9.49987C15.5859 10.5816 15.6731 12.8991 15.2853 13.8751Z" fill="white"/>
</svg>
