<svg width="170" height="35" viewBox="0 0 170 35" fill="none" xmlns="http://www.w3.org/2000/svg">
<path d="M128.743 0H106.097C104.993 0 103.942 0.882058 103.746 1.96988L99.7556 24.3005C99.5599 25.3883 100.297 26.2703 101.401 26.2703H124.047C125.15 26.2703 126.203 25.3883 126.397 24.3005L130.39 1.96988C130.582 0.882058 129.846 0 128.743 0Z" fill="#4CCEAC"/>
<path d="M114.882 4.7692L111.41 24.1888H106.496L108.358 13.778C108.626 12.2744 108.751 11.3705 108.733 11.0664C108.725 10.9184 108.675 10.7756 108.59 10.6539C108.504 10.5322 108.386 10.4364 108.248 10.3774C107.947 10.221 107.229 10.1429 106.093 10.1429H105.608L106.014 7.87953C108.479 7.37549 110.469 6.33872 111.983 4.7692H114.882Z" fill="white"/>
<path d="M121.622 2.14374C122.573 3.7122 124.191 4.74844 126.475 5.25247L126.071 7.51743H125.585C124.45 7.51743 123.704 7.59506 123.348 7.75031C123.187 7.81264 123.04 7.90575 122.916 8.02428C122.792 8.14281 122.692 8.28442 122.624 8.44096C122.495 8.74402 122.297 9.64788 122.028 11.1525L120.166 21.5634H115.255L118.732 2.14374H121.622Z" fill="white"/>
<path d="M5.70988 7.98636H0.276367V4.82977H15.0758V7.98636H9.64065V21.5761H5.70988V7.98636Z" fill="#696FFB"/>
<path d="M18.3047 13.2022C18.3047 8.22562 22.2355 4.54108 27.5962 4.54108C32.9569 4.54108 36.8893 8.20967 36.8893 13.2022C36.8893 18.1946 32.9343 21.8632 27.5962 21.8632C22.2581 21.8632 18.3047 18.1835 18.3047 13.2022ZM32.91 13.2022C32.91 10.02 30.6292 7.84281 27.5962 7.84281C24.5632 7.84281 22.2824 10.02 22.2824 13.2022C22.2824 16.3843 24.5632 18.5615 27.5962 18.5615C30.6292 18.5615 32.91 16.3843 32.91 13.2022Z" fill="#696FFB"/>
<path d="M57.0041 10.9053C57.0041 14.6377 54.1652 16.9585 49.6279 16.9585H46.2066V21.5841H42.2759V4.83616H49.6279C54.1652 4.82978 57.0041 7.14898 57.0041 10.9053ZM53.0248 10.9053C53.0248 9.06302 51.8116 7.98637 49.4095 7.98637H46.2066V13.8003H49.4095C51.8116 13.8003 53.0248 12.7236 53.0248 10.9053Z" fill="#696FFB"/>
<path d="M61.1289 19.9253L62.4634 17.0063C63.895 18.0351 66.0302 18.7529 68.0684 18.7529C70.3978 18.7529 71.3441 17.9873 71.3441 16.9585C71.3441 13.8242 61.4686 15.9775 61.4686 9.75686C61.4686 6.90971 63.798 4.54108 68.6265 4.54108C70.7617 4.54108 72.9455 5.04351 74.5227 6.02447L73.3095 8.96732C71.7323 8.08207 70.1066 7.65619 68.6022 7.65619C66.2729 7.65619 65.367 8.51752 65.367 9.57024C65.367 12.6566 75.2425 10.5273 75.2425 16.6762C75.2425 19.4754 72.8889 21.868 68.0361 21.868C65.3508 21.8632 62.6333 21.0737 61.1289 19.9253Z" fill="#343A40"/>
<path d="M93.5212 18.4658V21.5761H80.3701V4.82819H93.2058V7.93852H84.2766V11.5752H92.1624V14.5898H84.2766V18.4658H93.5212Z" fill="#343A40"/>
<path d="M149.4 18.4658V21.5761H136.249V4.82819H149.084V7.93852H140.155V11.5752H148.041V14.5898H140.155V18.4658H149.4Z" fill="#343A40"/>
<path d="M165.778 21.5761L162.502 16.9075H158.887V21.573H154.956V4.82501H162.308C166.845 4.82501 169.684 7.1442 169.684 10.9005C169.684 13.4127 168.39 15.255 166.19 16.1881L170 21.5714L165.778 21.5761ZM162.083 7.98638H158.88V13.8242H162.083C164.485 13.8242 165.699 12.7237 165.699 10.9053C165.705 9.06304 164.492 7.98638 162.083 7.98638Z" fill="#343A40"/>
<path d="M5.52248 33.4034H2.27758L1.65804 34.8804H0L3.1155 27.9882H4.71369L7.83889 34.8804H6.14688L5.52248 33.4034ZM5.01456 32.1928L3.9065 29.553L2.79845 32.1928H5.01456Z" fill="#343A40"/>
<path d="M9.35791 31.8482V27.9882H10.9755V31.7892C10.9755 33.0987 11.5546 33.6395 12.5333 33.6395C13.5119 33.6395 14.091 33.0987 14.091 31.7892V27.9882H15.6908V31.8482C15.6908 33.8771 14.5116 35 12.5252 35C10.5388 35 9.35791 33.8771 9.35791 31.8482Z" fill="#343A40"/>
<path d="M19.6136 29.2882H17.3765V27.9882H23.4683V29.2882H21.2312V34.8804H19.6136V29.2882Z" fill="#343A40"/>
<path d="M24.7964 31.4351C24.7964 29.3855 26.414 27.8702 28.6204 27.8702C30.8268 27.8702 32.446 29.3759 32.446 31.4351C32.446 33.4943 30.8171 35 28.6204 35C26.4237 35 24.7964 33.4831 24.7964 31.4351ZM30.8074 31.4351C30.8074 30.124 29.8692 29.2292 28.6204 29.2292C27.3716 29.2292 26.4334 30.124 26.4334 31.4351C26.4334 32.7462 27.3732 33.6394 28.6204 33.6394C29.8676 33.6394 30.8074 32.7446 30.8074 31.4351Z" fill="#343A40"/>
<path d="M39.117 34.8804L37.7679 32.9663H36.2797V34.8804H34.6621V27.9882H37.6903C39.557 27.9882 40.7265 28.9452 40.7265 30.4892C40.7456 30.9542 40.6173 31.4135 40.3596 31.8034C40.1019 32.1933 39.7276 32.4944 39.2884 32.6649L40.8559 34.8804H39.117ZM37.5981 29.2882H36.2797V31.6903H37.5981C38.5864 31.6903 39.0862 31.2373 39.0862 30.4892C39.0862 29.7412 38.5864 29.2882 37.5981 29.2882Z" fill="#343A40"/>
<path d="M48.413 33.6012V34.8772H43.0005V27.9882H48.2836V29.2643H44.6084V30.762H47.8533V32.0029H44.6084V33.598L48.413 33.6012Z" fill="#343A40"/>
<path d="M56.7613 30.4892C56.7613 32.0253 55.5934 32.9807 53.7251 32.9807H52.3178V34.8804H50.7002V27.9882H53.7251C55.5934 27.9882 56.7613 28.9436 56.7613 30.4892ZM55.1227 30.4892C55.1227 29.7316 54.6245 29.2882 53.6361 29.2882H52.3178V31.6807H53.6361C54.6245 31.6807 55.1227 31.2373 55.1227 30.4892Z" fill="#343A40"/>
<path d="M63.3631 34.8804L62.014 32.9663H60.5258V34.8804H58.9082V27.9882H61.9347C63.8014 27.9882 64.971 28.9452 64.971 30.4892C64.99 30.9542 64.8618 31.4135 64.6041 31.8034C64.3464 32.1933 63.972 32.4944 63.5329 32.6649L65.1004 34.8804H63.3631ZM61.8441 29.2882H60.5258V31.6903H61.8441C62.8325 31.6903 63.3323 31.2373 63.3323 30.4892C63.3323 29.7412 62.8325 29.2882 61.8441 29.2882Z" fill="#343A40"/>
<path d="M67.2471 27.9882H68.8647V34.8804H67.2471V27.9882Z" fill="#343A40"/>
<path d="M71.0806 31.4351C71.0806 29.3615 72.6982 27.8702 74.8754 27.8702C76.0838 27.8702 77.0932 28.3024 77.7515 29.0904L76.713 30.0362C76.4998 29.7811 76.2314 29.5761 75.9274 29.4365C75.6234 29.2968 75.2916 29.226 74.9563 29.2292C73.6477 29.2292 72.7192 30.1351 72.7192 31.4351C72.7192 32.7351 73.6477 33.6394 74.9563 33.6394C75.2927 33.6433 75.6256 33.5718 75.9299 33.4303C76.2342 33.2889 76.502 33.0811 76.713 32.8228L77.7515 33.7686C77.0932 34.5662 76.0838 35 74.8657 35C72.6998 35 71.0806 33.5118 71.0806 31.4351Z" fill="#343A40"/>
<path d="M85.2476 33.6012V34.8772H79.8384V27.9882H85.1215V29.2643H81.4463V30.762H84.6928V32.0029H81.4463V33.598L85.2476 33.6012Z" fill="#343A40"/>
<path d="M91.993 34.8804L90.6439 32.9663H89.1557V34.8804H87.5381V27.9882H90.5646C92.4313 27.9882 93.6009 28.9452 93.6009 30.4892C93.6199 30.9542 93.4917 31.4135 93.234 31.8034C92.9763 32.1933 92.6019 32.4944 92.1628 32.6649L93.7303 34.8804H91.993ZM90.474 29.2882H89.1557V31.6903H90.474C91.4624 31.6903 91.9622 31.2373 91.9622 30.4892C91.9622 29.7412 91.4624 29.2882 90.474 29.2882Z" fill="#343A40"/>
</svg>
