<svg width="18" height="15" viewBox="0 0 18 15" fill="none" xmlns="http://www.w3.org/2000/svg">
<g clip-path="url(#clip0)">
<path d="M17.999 1.7768C17.4978 2.54167 16.8828 3.19368 16.1542 3.73284C16.1614 3.87744 16.165 4.04087 16.165 4.22315C16.165 5.23588 16.021 6.24983 15.7332 7.26501C15.4453 8.2802 15.0056 9.25191 14.4141 10.1802C13.8226 11.1084 13.1179 11.9307 12.3002 12.6472C11.4825 13.3636 10.4995 13.9349 9.35134 14.3609C8.20317 14.787 6.97264 15 5.65975 15C3.61077 15 1.72386 14.4325 -0.000976562 13.2976C0.305162 13.3326 0.598774 13.35 0.879861 13.35C2.59162 13.35 4.12049 12.8092 5.46648 11.7274C4.66837 11.7124 3.95359 11.4603 3.32216 10.9713C2.69073 10.4822 2.25619 9.85725 2.01855 9.09643C2.25344 9.14233 2.48527 9.16528 2.71405 9.16528C3.04334 9.16528 3.36737 9.12122 3.68612 9.0331C2.83438 8.8581 2.12779 8.4229 1.56635 7.7275C1.00492 7.03211 0.724213 6.2295 0.724213 5.31966V5.27277C1.24702 5.56973 1.80467 5.72769 2.39716 5.74665C1.8926 5.40157 1.49256 4.95157 1.19703 4.39666C0.901491 3.84175 0.75372 3.24125 0.75372 2.59513C0.75372 1.9137 0.920168 1.27917 1.25306 0.691515C2.17932 1.85758 3.30166 2.78954 4.62011 3.48739C5.93857 4.18526 7.35303 4.57282 8.86349 4.6501C8.79906 4.37467 8.76679 4.08725 8.76668 3.78783C8.76668 2.74237 9.12732 1.8497 9.84859 1.10982C10.5699 0.36994 11.4401 0 12.4592 0C13.5261 0 14.4248 0.398555 15.1553 1.19567C15.9899 1.02608 16.7713 0.71933 17.4996 0.27543C17.219 1.18133 16.6783 1.88017 15.8776 2.37195C16.6136 2.28223 17.3207 2.08384 17.999 1.7768H17.999Z" fill="white"/>
</g>
<defs>
<clipPath id="clip0">
<rect width="18" height="15" fill="white"/>
</clipPath>
</defs>
</svg>
